#define game_width 64
#define game_height 48
static unsigned char game_bits[] = {
   0x00, 0x00, 0x00, 0x00, 0x00, 0x00, 0x00, 0x00, 0x00, 0x00, 0x00, 0x00,
   0x00, 0x00, 0x00, 0x00, 0x00, 0x00, 0x00, 0x00, 0x00, 0x00, 0x00, 0x00,
   0x00, 0x00, 0x00, 0x00, 0x00, 0x00, 0x00, 0x00, 0x00, 0x00, 0x00, 0x00,
   0x00, 0x00, 0x00, 0x00, 0x00, 0x00, 0x00, 0x00, 0x00, 0x00, 0x00, 0x00,
   0x00, 0x00, 0x00, 0x00, 0x00, 0x00, 0x00, 0x00, 0x00, 0xff, 0x0f, 0x00,
   0x00, 0xf0, 0x7f, 0x00, 0x00, 0xff, 0xff, 0xff, 0xff, 0xff, 0xff, 0x00,
   0x80, 0xff, 0xff, 0xff, 0xff, 0xff, 0xff, 0x01, 0xc0, 0xff, 0xff, 0xff,
   0xff, 0xff, 0xff, 0x03, 0xc0, 0xff, 0xff, 0xff, 0xff, 0xff, 0xff, 0x03,
   0xe0, 0x07, 0xff, 0xff, 0xff, 0xff, 0xf9, 0x07, 0xe0, 0x07, 0xff, 0xff,
   0xff, 0x7f, 0xf0, 0x07, 0xe0, 0x07, 0xff, 0xff, 0xff, 0x7f, 0xe0, 0x07,
   0xf0, 0x07, 0xff, 0xff, 0xff, 0x7f, 0xe0, 0x0f, 0xf0, 0x0f, 0xff, 0xff,
   0xff, 0x7f, 0xf0, 0x0f, 0xf0, 0x9f, 0xff, 0xff, 0xff, 0xcf, 0x30, 0x0f,
   0x38, 0xf8, 0xc0, 0x81, 0x81, 0x83, 0x1f, 0x1e, 0x38, 0xf0, 0xc0, 0x80,
   0x01, 0x03, 0x0f, 0x1c, 0x38, 0xf0, 0xc0, 0x81, 0x01, 0x03, 0x0f, 0x1c,
   0x38, 0xf8, 0xc0, 0x81, 0x81, 0x03, 0x0f, 0x1c, 0xfc, 0x8f, 0xef, 0xff,
   0xff, 0x87, 0x19, 0x3e, 0xfc, 0x0f, 0xff, 0xff, 0xff, 0xff, 0xf0, 0x3f,
   0xfc, 0x07, 0xff, 0xff, 0xff, 0x7f, 0xe0, 0x3f, 0xfc, 0x07, 0xff, 0xff,
   0xff, 0x7f, 0xe0, 0x3f, 0xfe, 0x07, 0xff, 0xff, 0xff, 0x7f, 0xe0, 0x7f,
   0xfe, 0x07, 0xff, 0xff, 0xff, 0xff, 0xf0, 0x7f, 0xfe, 0xff, 0x3f, 0x00,
   0x00, 0xfc, 0xff, 0x7f, 0xff, 0xff, 0x1f, 0x00, 0x00, 0xf8, 0xff, 0xff,
   0xff, 0xff, 0x0f, 0x00, 0x00, 0xf0, 0xff, 0xff, 0xff, 0xff, 0x0f, 0x00,
   0x00, 0xf0, 0xff, 0xff, 0xff, 0xff, 0x0f, 0x00, 0x00, 0xf0, 0xff, 0xff,
   0xff, 0xff, 0x07, 0x00, 0x00, 0xe0, 0xff, 0xff, 0xff, 0xff, 0x07, 0x00,
   0x00, 0xe0, 0xff, 0xff, 0xff, 0xff, 0x03, 0x00, 0x00, 0xc0, 0xff, 0xff,
   0xfe, 0xff, 0x03, 0x00, 0x00, 0xc0, 0xff, 0x7f, 0xfe, 0xff, 0x01, 0x00,
   0x00, 0x80, 0xff, 0x7f, 0xf8, 0xff, 0x01, 0x00, 0x00, 0x80, 0xff, 0x1f,
   0xc0, 0xff, 0x00, 0x00, 0x00, 0x00, 0xff, 0x03, 0x00, 0x3f, 0x00, 0x00,
   0x00, 0x00, 0xfc, 0x00, 0x00, 0x00, 0x00, 0x00, 0x00, 0x00, 0x00, 0x00,
   0x00, 0x00, 0x00, 0x00, 0x00, 0x00, 0x00, 0x00, 0x00, 0x00, 0x00, 0x00,
   0x00, 0x00, 0x00, 0x00, 0x00, 0x00, 0x00, 0x00, 0x00, 0x00, 0x00, 0x00,
   0x00, 0x00, 0x00, 0x00, 0x00, 0x00, 0x00, 0x00, 0x00, 0x00, 0x00, 0x00,
   0x00, 0x00, 0x00, 0x00, 0x00, 0x00, 0x00, 0x00, 0x00, 0x00, 0x00, 0x00 };
