#define clock_width 64
#define clock_height 48
static unsigned char clock_bits[] = {
   0x00, 0x00, 0x00, 0xf8, 0x1f, 0x00, 0x00, 0x00, 0x00, 0x00, 0x00, 0xff,
   0xff, 0x00, 0x00, 0x00, 0x00, 0x00, 0xe0, 0xff, 0xff, 0x07, 0x00, 0x00,
   0x00, 0x00, 0xf0, 0xff, 0xff, 0x0f, 0x00, 0x00, 0x00, 0x00, 0xfc, 0x03,
   0xc0, 0x3f, 0x00, 0x00, 0x00, 0x00, 0x7e, 0x00, 0x00, 0x7e, 0x00, 0x00,
   0x00, 0x00, 0x1f, 0x00, 0x00, 0xf8, 0x00, 0x00, 0x00, 0x80, 0x0f, 0x80,
   0x01, 0xf0, 0x01, 0x00, 0x00, 0xc0, 0x07, 0x80, 0x01, 0xe0, 0x03, 0x00,
   0x00, 0xe0, 0x83, 0x01, 0x80, 0xc1, 0x07, 0x00, 0x00, 0xf0, 0x81, 0x01,
   0x80, 0x81, 0x0f, 0x00, 0x00, 0xf0, 0x00, 0x80, 0x00, 0x00, 0x0f, 0x00,
   0x00, 0x78, 0x00, 0x80, 0x00, 0x00, 0x1e, 0x00, 0x00, 0x3c, 0x00, 0x80,
   0x00, 0x00, 0x3c, 0x00, 0x00, 0x3c, 0x00, 0x80, 0x01, 0x00, 0x3c, 0x00,
   0x00, 0x1c, 0x04, 0x80, 0x01, 0x60, 0x38, 0x00, 0x00, 0x1e, 0x04, 0x80,
   0x01, 0x60, 0x78, 0x00, 0x00, 0x1e, 0x00, 0x80, 0x01, 0x00, 0x78, 0x00,
   0x00, 0x0e, 0x00, 0x80, 0x01, 0x00, 0x70, 0x00, 0x00, 0x0f, 0x00, 0x80,
   0x01, 0x00, 0xf0, 0x00, 0x00, 0x0f, 0x00, 0x80, 0x01, 0x00, 0xf0, 0x00,
   0x00, 0x0f, 0x00, 0x80, 0x01, 0x00, 0xf0, 0x00, 0x00, 0x0f, 0x00, 0x00,
   0x01, 0x00, 0xf0, 0x00, 0x00, 0x8f, 0x00, 0x80, 0x01, 0x80, 0xf1, 0x00,
   0x00, 0x8f, 0x00, 0xc0, 0x00, 0x80, 0xf1, 0x00, 0x00, 0x0f, 0x00, 0x70,
   0x00, 0x00, 0xf0, 0x00, 0x00, 0x0f, 0x00, 0x1c, 0x00, 0x00, 0xf0, 0x00,
   0x00, 0x0f, 0x00, 0x0e, 0x00, 0x00, 0xf0, 0x00, 0x00, 0x0f, 0x80, 0x03,
   0x00, 0x00, 0xf0, 0x00, 0x00, 0x0e, 0xe0, 0x00, 0x00, 0x00, 0x70, 0x00,
   0x00, 0x1e, 0x20, 0x00, 0x00, 0x00, 0x78, 0x00, 0x00, 0x1e, 0x06, 0x00,
   0x00, 0x60, 0x78, 0x00, 0x00, 0x1c, 0x06, 0x00, 0x00, 0x60, 0x38, 0x00,
   0x00, 0x3c, 0x00, 0x00, 0x00, 0x00, 0x3c, 0x00, 0x00, 0x3c, 0x00, 0x00,
   0x00, 0x00, 0x3c, 0x00, 0x00, 0x78, 0x00, 0x00, 0x00, 0x00, 0x1e, 0x00,
   0x00, 0xf0, 0x00, 0x00, 0x00, 0x00, 0x0f, 0x00, 0x00, 0xf0, 0x81, 0x01,
   0x80, 0x81, 0x0f, 0x00, 0x00, 0xe0, 0x83, 0x01, 0x80, 0xc1, 0x07, 0x00,
   0x00, 0xc0, 0x07, 0x80, 0x01, 0xe0, 0x03, 0x00, 0x00, 0x80, 0x0f, 0x80,
   0x01, 0xf0, 0x01, 0x00, 0x00, 0x00, 0x3f, 0x00, 0x00, 0xf8, 0x00, 0x00,
   0x00, 0x00, 0x7e, 0x00, 0x00, 0x7e, 0x00, 0x00, 0x00, 0x00, 0xfc, 0x03,
   0xc0, 0x3f, 0x00, 0x00, 0x00, 0x00, 0xf0, 0xff, 0xff, 0x0f, 0x00, 0x00,
   0x00, 0x00, 0xe0, 0xff, 0xff, 0x07, 0x00, 0x00, 0x00, 0x00, 0x00, 0xff,
   0xff, 0x00, 0x00, 0x00, 0x00, 0x00, 0x00, 0xf8, 0x1f, 0x00, 0x00, 0x00 };
