{"cards":
[{
  "id": 1,
  "title": "Ecole",
  "activate": "on",
  "layout": "layout1",
  "type" : "Finish hour",
  "value" : "08:10",
  "image": "shoes"
},
{
  "id": 2,
  "title": "Petit dejeuner",
  "activate": "off",
  "layout": "layout1",
  "type" : "Delay",
  "value" : "30",
  "image": "coffee"
}]
}
